{
    "google": {
        "service_account_key": {
            "type": "...",
            "project_id": "...",
            "private_key_id": "...",
            "private_key": "...",
            "client_email": "...",
            "client_id": "...",
            "auth_uri": "https://accounts.google.com/o/oauth2/auth",
            "token_uri": "https://oauth2.googleapis.com/token",
            "auth_provider_x509_cert_url": "https://www.googleapis.com/oauth2/v1/certs",
            "client_x509_cert_url": "..."
        }
    },
    "crypto_compare": {
        "api_key": "..."
    }
}